New York Yellow Cabs Data Analysis
…
We also added the same attribute to the dataframe that includes boroughs names.

split <- zone_df$tpep_dropoff_datetime
  split<-as.data.frame(split)
  split<- split%>%separate(split, c("date","time"), sep="\\s" )
  split$day <- weekdays(as.Date(split$date))
  zone_df$day <-split$day 
zone_df

## # A tibble: 2,000,008 x 12
##    VendorID tpep_pickup_dateti tpep_dropoff_datet passenger_count
##       <dbl> <dttm>              <dttm>                        <dbl>
##  1        2 2018-10-07 01:27:13 2018-10-07 01:35:41               1
##  2        1 2018-10-12 18:54:04 2018-10-12 19:02:22               2
##  3        1 2018-10-18 17:44:06 2018-10-18 17:50:13               1
##  4        1 2018-10-17 18:52:51 2018-10-17 18:59:37               1
##  5        1 2018-10-07 01:11:00 2018-10-07 01:15:50               1
##  6        2 2018-10-11 12:13:38 2018-10-11 12:20:16               3
##  7        2 2018-10-06 18:24:51 2018-10-06 18:34:40               1
##  8        1 2018-10-05 19:16:54 2018-10-05 19:26:06               1
##  9        1 2018-10-30 08:41:19 2018-10-30 08:58:31               1
## 10        2 2018-10-13 04:10:28 2018-10-13 04:29:31               2
## #  with 1,999,998 more rows, and 8 more variables: trip_distance <dbl>,
## #   fare_amount <dbl>, tip_amount <dbl>, tolls_amount <dbl>,
## #   PULocationID <dbl>, DOLocationID <dbl>, Borough <chr>, day <chr>
…
