New York Yellow Cabs Data Analysis
…
We also added the same attribute to the dataframe that includes boroughs names.

split <- zone_df$tpep_dropoff_datetime
  split<-as.data.frame(split)
  split<- split%>%separate(split, c("date","time"), sep="\\s" )
  split$day <- weekdays(as.Date(split$date))
  zone_df$day <-split$day 
zone_df

<<<<<<< HEAD

## # A tibble: 2,000,009 x 12
##    VendorID tpep_pickup_dateti tpep_dropoff_datet passenger_count
##       <dbl> <dttm>              <dttm>                        <dbl>
##  1        2 2018-10-13 19:37:33 2018-10-13 19:52:12               2
##  2        1 2018-10-22 22:42:11 2018-10-22 23:11:17               1
##  3        1 2018-10-08 20:12:20 2018-10-08 20:19:12               1
##  4        2 2018-10-17 18:02:36 2018-10-17 18:24:37               4
##  5        2 2018-10-18 14:07:51 2018-10-18 14:23:14               1
##  6        2 2018-10-22 15:32:52 2018-10-22 15:34:12               1
##  7        2 2018-10-06 22:05:09 2018-10-06 22:20:50               2
##  8        2 2018-10-24 18:36:12 2018-10-24 18:44:37               1
##  9        1 2018-10-24 10:13:29 2018-10-24 10:37:36               1
## 10        2 2018-10-05 07:51:13 2018-10-05 08:00:30               1
## #  with 1,999,999 more rows, and 8 more variables: trip_distance <dbl>,
=======

## # A tibble: 2,000,005 x 12
##    VendorID tpep_pickup_dateti tpep_dropoff_datet passenger_count
##       <dbl> <dttm>              <dttm>                        <dbl>
##  1        2 2018-10-04 15:30:58 2018-10-04 15:58:15               1
##  2        2 2018-10-16 20:09:21 2018-10-16 20:25:00               1
##  3        1 2018-10-07 19:57:27 2018-10-07 20:08:03               1
##  4        2 2018-10-23 17:57:50 2018-10-23 18:10:27               2
##  5        2 2018-10-22 13:25:44 2018-10-22 13:31:29               2
##  6        2 2018-10-28 16:50:18 2018-10-28 17:14:08               1
##  7        2 2018-10-17 19:28:06 2018-10-17 19:47:19               1
##  8        1 2018-10-07 00:43:30 2018-10-07 00:58:39               1
##  9        1 2018-10-05 12:25:24 2018-10-05 12:31:06               1
## 10        2 2018-10-23 11:37:31 2018-10-23 11:42:41               1
## #  with 1,999,995 more rows, and 8 more variables: trip_distance <dbl>,
…
