New York Yellow Cabs Data Analysis
…
We also added the same attribute to the dataframe that includes boroughs names.

split <- zone_df$tpep_dropoff_datetime
  split<-as.data.frame(split)
  split<- split%>%separate(split, c("date","time"), sep="\\s" )
  split$day <- weekdays(as.Date(split$date))
  zone_df$day <-split$day 
zone_df

## # A tibble: 2,000,010 x 12
##    VendorID tpep_pickup_dateti tpep_dropoff_datet passenger_count
##       <dbl> <dttm>              <dttm>                        <dbl>
##  1        1 2018-10-26 08:42:48 2018-10-26 08:56:43               1
##  2        1 2018-10-24 20:32:39 2018-10-24 20:46:54               1
##  3        4 2018-10-30 12:45:55 2018-10-30 13:10:20               4
##  4        2 2018-10-21 16:23:30 2018-10-21 17:12:32               4
##  5        2 2018-10-07 20:50:32 2018-10-07 21:13:58               1
##  6        2 2018-10-10 18:58:04 2018-10-10 19:09:01               1
##  7        2 2018-10-23 20:51:36 2018-10-23 21:11:03               3
##  8        2 2018-10-31 06:37:02 2018-10-31 07:02:06               4
##  9        2 2018-10-21 19:08:43 2018-10-21 19:18:31               1
## 10        2 2018-10-13 18:51:54 2018-10-13 18:54:17               1
## #  with 2,000,000 more rows, and 8 more variables: trip_distance <dbl>,
## #   fare_amount <dbl>, tip_amount <dbl>, tolls_amount <dbl>,
## #   PULocationID <dbl>, DOLocationID <dbl>, Borough <chr>, day <chr>
…
